{
  "images" : [
    {
      "resizing" : {
        "mode" : "9-part",
        "center" : {
          "mode" : "tile",
          "width" : 1,
          "height" : 1
        },
        "cap-insets" : {
          "bottom" : 34,
          "top" : 33,
          "right" : 84,
          "left" : 83
        }
      },
      "idiom" : "universal",
      "filename" : "me_tab_activity_main_off.png",
      "scale" : "1x"
    },
    {
      "resizing" : {
        "mode" : "9-part",
        "center" : {
          "mode" : "tile",
          "width" : 4,
          "height" : 1
        },
        "cap-insets" : {
          "bottom" : 68,
          "top" : 67,
          "right" : 168,
          "left" : 164
        }
      },
      "idiom" : "universal",
      "filename" : "me_tab_activity_main_off@2x.png",
      "scale" : "2x"
    },
    {
      "resizing" : {
        "mode" : "9-part",
        "center" : {
          "mode" : "tile",
          "width" : 1,
          "height" : 1
        },
        "cap-insets" : {
          "bottom" : 102,
          "top" : 101,
          "right" : 252,
          "left" : 251
        }
      },
      "idiom" : "universal",
      "filename" : "me_tab_activity_main_off@3x.png",
      "scale" : "3x"
    }
  ],
  "info" : {
    "version" : 1,
    "author" : "xcode"
  }
}