{
  "images" : [
    {
      "resizing" : {
        "mode" : "3-part-vertical",
        "center" : {
          "mode" : "fill",
          "height" : 1
        },
        "capInsets" : {
          "top" : 139,
          "bottom" : 140
        }
      },
      "idiom" : "universal",
      "filename" : "gradient_mask.png",
      "scale" : "1x"
    },
    {
      "resizing" : {
        "mode" : "3-part-vertical",
        "center" : {
          "mode" : "fill",
          "height" : 1
        },
        "capInsets" : {
          "top" : 279,
          "bottom" : 280
        }
      },
      "idiom" : "universal",
      "filename" : "gradient_mask@2x.png",
      "scale" : "2x"
    },
    {
      "resizing" : {
        "mode" : "3-part-vertical",
        "center" : {
          "mode" : "fill",
          "height" : 1
        },
        "capInsets" : {
          "top" : 419,
          "bottom" : 420
        }
      },
      "idiom" : "universal",
      "filename" : "gradient_mask@3x.png",
      "scale" : "3x"
    }
  ],
  "info" : {
    "version" : 1,
    "author" : "xcode"
  }
}